<svg width="26" height="29" viewBox="0 0 26 29" fill="none" xmlns="http://www.w3.org/2000/svg">
<path d="M5.16667 11.625H11.625V18.0833H5.16667V11.625Z" fill="#152849"/>
<path d="M20.6667 2.58333H19.375V0H16.7917V2.58333H6.45833V0H3.875V2.58333H2.58333C1.14958 2.58333 0.0129167 3.74583 0.0129167 5.16667L0 23.25C0 24.6708 1.14958 25.8333 2.58333 25.8333H12.9167L11.625 23.25H2.58333V9.04167H20.6667V14.2083L23.25 15.1568V5.16667C23.25 3.74583 22.0875 2.58333 20.6667 2.58333Z" fill="#152849"/>
<path d="M19.3686 15.5C15.8036 15.5 12.9167 18.3933 12.9167 21.9583C12.9167 25.5233 15.8036 28.4167 19.3686 28.4167C22.94 28.4167 25.8334 25.5233 25.8334 21.9583C25.8334 18.3933 22.94 15.5 19.3686 15.5ZM19.3686 26.4792C16.7917 26.4792 14.8542 24.6411 14.8542 21.9583C14.8542 19.375 16.8191 17.4375 19.3686 17.4375C21.918 17.4375 23.8959 19.2756 23.8959 21.9583C23.8959 24.6411 21.9454 26.4792 19.3686 26.4792Z" fill="#152849"/>
<path d="M19.6979 18.7317H18.7292V22.6067L22.1198 24.6411L22.6042 23.8467L19.6979 22.1223V18.7317Z" fill="#152849"/>
</svg>
