<svg width="56" height="38" viewBox="0 0 56 38" fill="none" xmlns="http://www.w3.org/2000/svg">
<path d="M23.4896 17.4117L21.6238 12.1693L21.0514 10.5619L22.4898 11.1175L27.1507 12.9158L30.4959 9.11554L31.4771 8.00006L31.6778 9.56937L32.3915 15.2486L37.4575 15.9399L39 16.152L37.8329 17.3268L33.9971 21.1822L35.8481 26.5052L36.4354 28.2017L34.9449 27.5401L29.8826 25.2921L26.5969 28.9906L25.7011 30.0001L25.4298 28.5919L24.4114 23.375L18.8398 22.3571L17 22.022L18.5834 20.8981L23.4896 17.4117ZM24.508 14.4978L25.6788 17.7891L25.8498 18.2684L25.467 18.5441L22.5084 20.6436L25.7569 21.2374L26.1174 21.301L26.1992 21.7082L26.8534 25.0673L28.9459 22.7091L29.195 22.4292L29.522 22.5734L32.6107 23.9434L31.4957 20.7369L31.3545 20.3382L31.6406 20.0498L33.9897 17.6916L30.8601 17.2632L30.4513 17.2081L30.3918 16.7373L29.9309 13.0897L27.8643 15.4352L27.6265 15.7024L27.3142 15.5836L24.508 14.4978Z" fill="#152849"/>
</svg>
