<svg width="24" height="24" viewBox="0 0 24 24" fill="none" xmlns="http://www.w3.org/2000/svg">
<path d="M5.75544 13.2307V12.5687H3L3 13.2307C3 18.0694 7.02325 22 12 22C16.9768 22 21 18.0694 21 13.2307C21 8.61609 17.3407 4.82739 12.6848 4.48647L12.6848 1L6.77798 5.79918L12.6848 10.5984V7.17312C15.8072 7.50574 18.2446 10.0864 18.2446 13.2307C18.2446 16.6015 15.4434 19.3246 12 19.3246C8.55661 19.3246 5.75544 16.6015 5.75544 13.2307Z" fill="#152849"/>
</svg>
