<svg width="24" height="24" viewBox="0 0 24 24" fill="none" xmlns="http://www.w3.org/2000/svg">
<path fill-rule="evenodd" clip-rule="evenodd" d="M21.3278 7.5H8.10278C7.75618 7.5 7.57863 7.61831 7.48542 7.71833L2.51689 13.2494L7.48528 18.7735C7.58673 18.8826 7.76857 19 8.10278 19H21.3278C21.6331 19 21.856 18.9053 21.9683 18.8219C21.9813 18.8123 21.9917 18.8039 22 18.7967V7.70331C21.9917 7.6961 21.9813 7.68766 21.9683 7.67805C21.856 7.59474 21.6331 7.5 21.3278 7.5ZM22.0288 7.73327C22.0288 7.73327 22.0271 7.73145 22.0248 7.72759C22.0279 7.7313 22.0288 7.73327 22.0288 7.73327ZM22.0288 18.7667C22.0288 18.7667 22.0279 18.7687 22.0248 18.7724C22.0271 18.7685 22.0288 18.7667 22.0288 18.7667ZM6.37586 19.7831L0.5 13.25L6.37586 6.70889C6.76686 6.28194 7.35336 6 8.10278 6H21.3278C22.5225 6 23.5 6.725 23.5 7.61111V18.8889C23.5 19.775 22.5225 20.5 21.3278 20.5H8.10278C7.35336 20.5 6.76686 20.21 6.37586 19.7831Z" fill="#152849"/>
<path d="M18 15.9425L16.9425 17L14.25 14.3075L11.5575 17L10.5 15.9425L13.1925 13.25L10.5 10.5575L11.5575 9.5L14.25 12.1925L16.9425 9.5L18 10.5575L15.3075 13.25L18 15.9425Z" fill="#152849"/>
</svg>
