<svg width="24" height="24" viewBox="0 0 24 24" fill="none" xmlns="http://www.w3.org/2000/svg">
<path fill-rule="evenodd" clip-rule="evenodd" d="M20.3674 5.63085C21.2109 6.47198 21.2109 7.83572 20.3674 8.67685L10.6474 18.3692C9.80382 19.2103 8.43618 19.2103 7.59265 18.3692L3.63265 14.4204C2.78912 13.5793 2.78912 12.2156 3.63265 11.3744C4.47618 10.5333 5.84382 10.5333 6.68735 11.3744L9.12 13.8002L17.3126 5.63085C18.1562 4.78972 19.5238 4.78972 20.3674 5.63085Z" fill="#152849"/>
</svg>
